study/lut_tanh/simulation/qsim/lut_tanh.msim.vcd
$comment
	File created using the following command:
		vcd file lut_tanh.msim.vcd -direction
$end
$date
	Mon Sep 28 21:36:42 2020
$end
$version
	ModelSim Version 2020.1
$end
$timescale
	1ps
$end

$scope module lut_tanh_vhd_vec_tst $end
$var wire 1 ! i_address [7] $end
$var wire 1 " i_address [6] $end
$var wire 1 # i_address [5] $end
$var wire 1 $ i_address [4] $end
$var wire 1 % i_address [3] $end
$var wire 1 & i_address [2] $end
$var wire 1 ' i_address [1] $end
$var wire 1 ( i_address [0] $end
$var wire 1 ) o_output [7] $end
$var wire 1 * o_output [6] $end
$var wire 1 + o_output [5] $end
$var wire 1 , o_output [4] $end
$var wire 1 - o_output [3] $end
$var wire 1 . o_output [2] $end
$var wire 1 / o_output [1] $end
$var wire 1 0 o_output [0] $end

$scope module i1 $end
$var wire 1 1 gnd $end
$var wire 1 2 vcc $end
$var wire 1 3 unknown $end
$var wire 1 4 devoe $end
$var wire 1 5 devclrn $end
$var wire 1 6 devpor $end
$var wire 1 7 ww_devoe $end
$var wire 1 8 ww_devclrn $end
$var wire 1 9 ww_devpor $end
$var wire 1 : ww_i_address [7] $end
$var wire 1 ; ww_i_address [6] $end
$var wire 1 < ww_i_address [5] $end
$var wire 1 = ww_i_address [4] $end
$var wire 1 > ww_i_address [3] $end
$var wire 1 ? ww_i_address [2] $end
$var wire 1 @ ww_i_address [1] $end
$var wire 1 A ww_i_address [0] $end
$var wire 1 B ww_o_output [7] $end
$var wire 1 C ww_o_output [6] $end
$var wire 1 D ww_o_output [5] $end
$var wire 1 E ww_o_output [4] $end
$var wire 1 F ww_o_output [3] $end
$var wire 1 G ww_o_output [2] $end
$var wire 1 H ww_o_output [1] $end
$var wire 1 I ww_o_output [0] $end
$var wire 1 J \o_output[0]~output_o\ $end
$var wire 1 K \o_output[1]~output_o\ $end
$var wire 1 L \o_output[2]~output_o\ $end
$var wire 1 M \o_output[3]~output_o\ $end
$var wire 1 N \o_output[4]~output_o\ $end
$var wire 1 O \o_output[5]~output_o\ $end
$var wire 1 P \o_output[6]~output_o\ $end
$var wire 1 Q \o_output[7]~output_o\ $end
$var wire 1 R \i_address[5]~input_o\ $end
$var wire 1 S \i_address[0]~input_o\ $end
$var wire 1 T \i_address[2]~input_o\ $end
$var wire 1 U \i_address[1]~input_o\ $end
$var wire 1 V \i_address[3]~input_o\ $end
$var wire 1 W \r_out~31_combout\ $end
$var wire 1 X \i_address[4]~input_o\ $end
$var wire 1 Y \i_address[6]~input_o\ $end
$var wire 1 Z \r_out~32_combout\ $end
$var wire 1 [ \i_address[7]~input_o\ $end
$var wire 1 \ \r_out~22_combout\ $end
$var wire 1 ] \r_out~24_combout\ $end
$var wire 1 ^ \r_out~23_combout\ $end
$var wire 1 _ \r_out~25_combout\ $end
$var wire 1 ` \r_out~26_combout\ $end
$var wire 1 a \r_out~27_combout\ $end
$var wire 1 b \r_out~16_combout\ $end
$var wire 1 c \r_out~18_combout\ $end
$var wire 1 d \r_out~17_combout\ $end
$var wire 1 e \r_out~19_combout\ $end
$var wire 1 f \r_out~20_combout\ $end
$var wire 1 g \r_out~21_combout\ $end
$var wire 1 h \r_out~28_combout\ $end
$var wire 1 i \r_out~85_combout\ $end
$var wire 1 j \r_out~86_combout\ $end
$var wire 1 k \r_out~12_combout\ $end
$var wire 1 l \r_out~81_combout\ $end
$var wire 1 m \r_out~15_combout\ $end
$var wire 1 n \r_out~82_combout\ $end
$var wire 1 o \r_out~9_combout\ $end
$var wire 1 p \r_out~8_combout\ $end
$var wire 1 q \r_out~80_combout\ $end
$var wire 1 r \r_out~29_combout\ $end
$var wire 1 s \r_out~30_combout\ $end
$var wire 1 t \r_out~33_combout\ $end
$var wire 1 u \r_out~35_combout\ $end
$var wire 1 v \r_out~36_combout\ $end
$var wire 1 w \r_out~38_combout\ $end
$var wire 1 x \r_out~39_combout\ $end
$var wire 1 y \r_out~40_combout\ $end
$var wire 1 z \r_out~37_combout\ $end
$var wire 1 { \r_out~41_combout\ $end
$var wire 1 | \r_out~42_combout\ $end
$var wire 1 } \r_out~43_combout\ $end
$var wire 1 ~ \r_out~44_combout\ $end
$var wire 1 !! \r_out~48_combout\ $end
$var wire 1 "! \r_out~46_combout\ $end
$var wire 1 #! \r_out~45_combout\ $end
$var wire 1 $! \r_out~47_combout\ $end
$var wire 1 %! \r_out~49_combout\ $end
$var wire 1 &! \r_out~34_combout\ $end
$var wire 1 '! \r_out~50_combout\ $end
$var wire 1 (! \r_out~53_combout\ $end
$var wire 1 )! \r_out~52_combout\ $end
$var wire 1 *! \r_out~54_combout\ $end
$var wire 1 +! \r_out~55_combout\ $end
$var wire 1 ,! \r_out~51_combout\ $end
$var wire 1 -! \r_out~56_combout\ $end
$var wire 1 .! \r_out~57_combout\ $end
$var wire 1 /! \r_out~61_combout\ $end
$var wire 1 0! \r_out~59_combout\ $end
$var wire 1 1! \r_out~58_combout\ $end
$var wire 1 2! \r_out~60_combout\ $end
$var wire 1 3! \r_out~62_combout\ $end
$var wire 1 4! \r_out~63_combout\ $end
$var wire 1 5! \r_out~65_combout\ $end
$var wire 1 6! \r_out~64_combout\ $end
$var wire 1 7! \r_out~67_combout\ $end
$var wire 1 8! \r_out~66_combout\ $end
$var wire 1 9! \r_out~68_combout\ $end
$var wire 1 :! \r_out~70_combout\ $end
$var wire 1 ;! \r_out~69_combout\ $end
$var wire 1 <! \r_out~71_combout\ $end
$var wire 1 =! \r_out~72_combout\ $end
$var wire 1 >! \r_out~73_combout\ $end
$var wire 1 ?! \r_out~77_combout\ $end
$var wire 1 @! \r_out~75_combout\ $end
$var wire 1 A! \r_out~74_combout\ $end
$var wire 1 B! \r_out~76_combout\ $end
$var wire 1 C! \r_out~79_combout\ $end
$var wire 1 D! \r_out~78_combout\ $end
$var wire 1 E! \r_out~83_combout\ $end
$var wire 1 F! \r_out~84_combout\ $end
$upscope $end
$upscope $end
$enddefinitions $end
#0
$dumpvars
01
12
x3
14
15
16
17
18
19
1J
1K
1L
1M
1N
1O
0P
0Q
0R
1S
0T
1U
1V
0W
1X
1Y
1Z
0[
1\
0]
1^
0_
0`
1a
0b
1c
1d
0e
1f
0g
0h
0i
0j
0k
0l
1m
0n
0o
1p
0q
1r
0s
1t
0u
0v
1w
1x
0y
1z
1{
0|
1}
0~
1!!
1"!
1#!
0$!
0%!
0&!
1'!
0(!
0)!
1*!
1+!
0,!
1-!
0.!
1/!
10!
11!
12!
13!
14!
15!
16!
17!
18!
19!
1:!
0;!
1<!
0=!
1>!
1?!
0@!
1A!
1B!
1C!
0D!
1E!
1F!
0!
1"
0#
1$
1%
0&
1'
1(
0:
1;
0<
1=
1>
0?
1@
1A
0B
0C
1D
1E
1F
1G
1H
1I
0)
0*
1+
1,
1-
1.
1/
10
$end
#5000
1!
1#
0$
1&
0(
0A
1?
0=
1<
1:
1[
1R
0X
1T
0S
0r
1s
1W
1_
1e
1y
1|
1%!
02!
0?!
1@!
0\
1]
1b
0d
1k
0p
0w
0z
1~
0!!
0"!
1)!
0+!
1,!
1.!
1h
0t
0'!
05!
07!
08!
09!
0B!
1=!
0:!
18!
0-!
0%!
0C!
03!
1'!
0|
1g
0a
1t
0s
1P
1Q
0h
0'!
04!
0<!
0>!
1C
1B
0K
0J
1*
1)
0t
0H
0I
1J
1K
0N
00
0/
1I
1H
0E
0M
0L
0K
10
1/
0,
0F
0G
0H
0J
0/
0.
0-
0I
00
#10000
1$
1(
0%
0'
1A
0@
0>
1=
1X
0V
0U
1S
1h
1a
0e
1<!
0=!
0W
0y
1!!
1"!
0*!
08!
19!
1`
0b
0c
1d
1i
0k
1w
1z
1$!
1&!
1(!
0,!
15!
0@!
17!
1e
1:!
0<!
1%!
1|
1>!
0g
1t
0h
1'!
1<!
1=!
1g
1;!
0<!
0=!
1h
0>!
0t
1J
1M
1t
1>!
1I
1F
1K
10
1-
1H
0J
0M
1/
0I
0F
1M
1J
00
0-
1F
1I
10
1-
#15000
1'
0#
1@
0<
0R
1U
1r
1<!
1@!
1\
0]
0^
1c
0d
1k
0m
0!!
0"!
0&!
0(!
0)!
1+!
0.!
0/!
01!
06!
0F!
12!
0%!
0'!
13!
0O
0D
0+
0K
0H
0/
#20000
0'
1#
0$
0(
1%
0!
0"
0A
0@
1>
0=
1<
0;
0:
0[
0Y
1R
0X
1V
0U
0S
1s
0:!
0;!
0_
0e
0r
0<!
1y
1*!
03!
0$!
02!
1?!
1D!
0i
1m
0w
0x
1"!
1)!
1.!
1/!
00!
11!
0Z
1]
1^
1b
1d
1j
1l
1p
0E!
0h
1'!
14!
05!
16!
07!
18!
1B!
1F!
1:!
17!
08!
1e
1_
1n
0j
1C!
04!
1-!
0|
0s
0g
0a
1<!
0P
0Q
0t
0}
1a
1g
0:!
1=!
0C
0B
1O
1L
1K
0*
0)
0>!
0<!
0=!
0'!
1D
1G
1H
0L
1N
1/
1.
1+
1>!
0G
1E
0J
0.
1,
0I
0K
0M
00
0H
0F
1M
0/
0-
1F
1-
#25000
1'
0#
1(
0&
1A
1@
0?
0<
0R
0T
1U
1S
1:!
1;!
1r
0_
0e
1|
0*!
0>!
1i
1o
0p
1w
1x
0z
0~
1!!
0)!
1,!
0.!
10!
06!
0A!
0F!
09!
13!
1*!
0y
1q
1j
0-!
1}
1s
1<!
1>!
1t
1'!
0|
1-!
14!
0:!
0;!
0O
0M
0<!
0}
0D
0F
0-
0+
0'!
0>!
1L
1K
1J
1M
1G
1H
1I
1F
10
1/
1.
1-
0M
0K
0F
0H
0/
0-
#30000
0'
1#
0(
1$
1!
1"
0A
0@
1=
1<
1;
1:
1[
1Y
1R
1X
0U
0S
1;!
1_
0a
1e
0g
12!
0@!
0D!
0i
0k
0m
1z
1~
0!!
1&!
1)!
0+!
0,!
00!
1Z
0^
0`
0d
0f
0j
0l
0n
0o
1A!
1h
0t
1}
15!
16!
07!
19!
0B!
1:!
0;!
09!
0q
1t
0*!
1E!
1g
0h
1a
1=!
1P
1Q
1>!
0t
1h
1F!
0-!
0r
0:!
1<!
1C
1B
0J
1*
1)
0>!
0<!
0=!
0s
04!
1t
0I
1J
00
1I
1O
0J
1M
10
1D
0I
1F
1J
0L
0M
00
1-
1+
1I
0G
0F
10
0.
0-
#35000
1(
0"
1&
1A
1?
0;
0Y
1T
1S
0~
1!!
0#!
1(!
1W
0_
0e
1i
1k
1m
1y
1|
1$!
1*!
1.!
10!
1>!
0Z
0\
0]
0b
0c
1f
1o
1p
0}
05!
06!
0C!
0F!
19!
1'!
1q
0|
1n
1l
1j
0g
0a
1%!
0h
1s
1:!
0O
0N
1M
1<!
1=!
0t
0D
0E
1F
1K
1-
0,
0+
0>!
1H
1/
0J
0I
0M
00
0F
0-
#40000
1"
0&
1'
0%
1@
0?
0>
1;
1Y
0V
0T
1U
1r
0z
0(!
0)!
1+!
1,!
1|
1-!
00!
0W
0i
0m
0"!
1#!
0&!
02!
0?!
1Z
1]
1^
1`
1d
0l
0n
0o
0p
1}
15!
16!
1C!
1F!
17!
0q
0C!
03!
0$!
14!
0*!
0s
0-!
0%!
1;!
1O
1N
0=!
0'!
04!
1D
1E
1L
0N
1,
1+
1>!
1G
0E
1.
0,
0L
0K
0G
0H
1M
0/
0.
1F
1-
#45000
0"
1&
0$
1?
0=
0;
0Y
0X
1T
1_
1e
0y
0|
1%!
1-!
10!
01!
1m
1)!
0+!
1?!
1@!
1D!
0Z
1\
1b
1c
0j
1l
1p
0}
05!
06!
0E!
0F!
07!
1q
1s
1n
12!
1g
1a
1h
13!
0;!
0O
1=!
1t
0D
0+
0>!
1J
1I
0M
10
0F
0-
#50000
0&
1$
0'
1%
0(
0A
0@
0?
1>
1=
1X
1V
0T
0U
0S
0%!
0-!
0.!
00!
11!
0q
1~
0!!
1"!
0\
0]
0^
0`
0b
0c
0d
0k
0m
0p
1z
1&!
0,!
0@!
0D!
1E!
0n
0l
0e
0_
0r
1'!
0a
0g
0s
0h
1K
0t
1H
1/
0J
0I
00
#55000
1&
0$
1'
0%
1(
1"
0#
1A
1@
1?
0>
0=
0<
1;
1Y
0R
0X
0V
1T
1U
1S
1r
1_
1e
1|
02!
1@!
1D!
1i
1k
1m
0z
0"!
0&!
0)!
1+!
1,!
0/!
10!
01!
1\
1]
1^
1b
1c
0f
1}
12!
1-!
0'!
0|
0E!
03!
14!
13!
0K
0H
1L
0/
1G
1.
#60000
1$
0(
0"
1#
0A
1=
1<
0;
0Y
1R
1X
0S
0r
1s
1$!
0?!
0@!
0D!
0k
1z
1"!
0#!
1&!
1(!
1.!
1/!
11!
0^
1j
1l
1n
1o
1p
0}
04!
1E!
1q
1r
02!
1'!
1|
0l
0s
03!
1s
0L
0G
1K
0.
1H
1/
#65000
0$
1(
0#
0'
1A
0@
0=
0<
0R
0X
0U
1S
0s
0_
1a
0e
1g
0r
0$!
12!
1?!
1@!
1D!
0E!
0]
1^
1`
1d
1f
1k
0p
0z
0"!
0&!
0(!
00!
01!
0A!
02!
0'!
0|
0q
1l
1e
1_
13!
1s
0g
1h
0a
0h
1t
1a
1g
03!
1h
0t
0K
1t
0H
1J
0/
1I
0J
10
0I
1J
00
1I
10
#70000
1$
0(
1'
0&
1%
0A
1@
0?
1>
1=
1X
1V
0T
1U
0S
0s
1r
0_
0e
0-!
0/!
10!
11!
1q
0~
1!!
1"!
1*!
1]
0i
0k
0o
1p
0w
0x
1z
0{
1$!
1(!
1)!
0,!
12!
0@!
0D!
1E!
0*!
1y
0q
0l
0j
1-!
1%!
1s
1|
0-!
#75000
0$
1"
0!
0=
1;
0:
0[
1Y
0X
1i
1k
0$!
0(!
0)!
1,!
02!
1@!
1D!
0]
0`
0c
0f
0n
1A!
0h
1}
14!
15!
16!
17!
09!
1F!
0:!
1;!
18!
19!
1'!
0r
0E!
1B!
1*!
0%!
0P
0Q
1-!
1C!
0s
1:!
0;!
0C
0B
1O
1L
0*
0)
0=!
0t
1D
1G
1K
1.
1+
1>!
1H
1N
1/
1E
0J
1,
0I
1M
00
1F
1-
#80000
1$
0"
1(
0'
1#
1A
0@
1=
1<
0;
0Y
1R
1X
0U
1S
0a
0g
1$!
12!
0@!
0D!
0i
0k
0m
1w
1x
1{
1&!
1(!
1)!
0+!
0,!
0.!
1/!
00!
0\
0^
0b
0d
1f
1j
1l
1n
0p
04!
1E!
1s
0*!
0y
0n
0l
0j
13!
1%!
14!
0s
0|
0-!
1t
0L
0}
0t
0G
0.
0'!
1J
1L
1I
1G
0J
10
1.
0I
0K
00
0H
0/
#85000
1'
0#
1!
0%
1@
0>
0<
1:
1[
0R
0V
1U
1r
1y
1*!
02!
0?!
1\
1]
1^
1`
1b
1c
1d
1i
1p
1~
0!!
0"!
1#!
0&!
0(!
0)!
1+!
10!
0A!
1'!
04!
05!
06!
08!
0B!
0F!
1;!
1=!
07!
0*!
0'!
0$!
1q
1j
1g
1a
0C!
03!
1-!
1|
1P
1Q
1h
0%!
0-!
0;!
0>!
0=!
1C
1B
0O
0L
1K
1*
1)
1>!
1=!
1t
0D
0G
1H
0N
0K
1/
0.
0+
0>!
0E
0H
0M
0/
0,
0F
1J
1M
0-
1I
1F
0M
10
1-
0F
0-
#90000
0'
1"
0(
0A
0@
1;
1Y
0U
0S
1s
1_
0a
1e
0g
1u
0x
0~
0#!
1(!
1)!
0/!
00!
01!
1Z
0]
0^
0b
0d
1}
15!
1A!
17!
0_
12!
1*!
1$!
0y
1g
0h
1a
0t
1h
0|
1%!
1-!
13!
0a
0:!
0<!
0=!
0h
14!
1'!
1t
0t
0J
0I
1J
1K
1L
00
1I
1H
1G
0J
10
1/
1.
0I
00
#95000
1(
1%
0$
1&
1A
1?
1>
0=
0X
1V
1T
1S
1h
0r
0s
1:!
1;!
0e
1|
0%!
1.!
1/!
1>!
1W
0j
0q
0u
1y
1~
1"!
03!
18!
0Z
1^
0`
1b
0c
1d
0f
0i
0p
1v
1x
0z
0$!
0(!
0)!
1,!
02!
05!
1?!
1@!
1D!
07!
08!
1e
1_
0;!
0|
0v
0E!
1Z
0'!
0g
1<!
1t
0h
1a
1g
1=!
1M
0>!
1h
0t
1F
1J
0K
1-
1t
1I
0H
10
0/
0J
0M
0I
0F
1J
00
0-
1I
10
#100000
1'
0"
0!
1@
0;
0:
0[
0Y
1U
0a
0g
1r
0~
1!!
1#!
0.!
0/!
10!
0?!
0D!
0Z
1]
1`
1c
1f
1o
0A!
0h
0}
1'!
04!
17!
09!
1B!
0:!
0'!
1q
1g
1a
0t
1C!
13!
1%!
0P
0Q
14!
0<!
0=!
0C
0B
0L
1K
0*
0)
1>!
0G
1H
1N
0J
0K
1/
0.
1E
0I
0H
1L
00
0/
1,
1G
1M
1.
1F
1-
#105000
1!
0%
1$
0&
0?
0>
1=
1:
1[
1X
0V
0T
0_
0e
1|
0%!
1/!
11!
0>!
0W
0q
1~
0!!
0"!
0*!
03!
1i
0o
1p
1z
0,!
12!
0@!
1E!
1h
04!
07!
19!
0B!
0C!
1:!
1t
1q
1j
0-!
02!
13!
1P
1Q
03!
1<!
1=!
1C
1B
0L
0M
1*
1)
0G
0F
1J
0N
0.
0-
1I
0E
10
0,
#110000
1%
0$
1&
0(
0A
1?
1>
0=
0X
1V
1T
0S
0r
1s
1_
1e
0|
1.!
00!
01!
1W
0q
0~
1!!
1"!
0#!
1*!
13!
0i
1o
0p
0w
0x
0{
1,!
1@!
0E!
1|
1q
0j
1-!
1%!
03!
0s
#115000
0%
1(
0!
1A
0>
0:
0[
0V
1S
1r
1w
1x
0z
1{
0.!
0/!
10!
0W
0]
1i
1k
1m
0q
0y
1~
0!!
0"!
1#!
0*!
1?!
1D!
0h
1}
09!
0:!
1'!
0t
0%!
1n
1l
1j
12!
0|
0P
0Q
0}
13!
1s
0<!
0=!
0C
0B
0*
0)
1>!
1t
14!
0'!
0J
1K
0I
1H
00
1/
0K
1L
1J
1M
0H
1G
1I
1F
10
0/
1.
1-
#120000
1%
1!
1$
0&
0'
1"
1#
0@
0?
1>
1=
1<
1;
1:
1[
1Y
1R
1X
1V
0T
0U
0r
0_
0-!
0>!
1q
1*!
03!
0@!
0D!
0i
0k
0m
1z
0~
1!!
1"!
0#!
1&!
1(!
1)!
0+!
0,!
1/!
00!
11!
1Z
1]
0^
0`
0d
0f
0j
0l
0n
0o
1A!
1C!
1h
0t
1}
15!
16!
19!
1:!
09!
0q
1_
1t
13!
0*!
1$!
1E!
1-!
04!
0a
0s
1P
1Q
1F!
1%!
0-!
14!
1a
0:!
1<!
1=!
1C
1B
0J
1N
0M
1*
1)
0<!
0=!
04!
1'!
0I
1E
0F
0L
1J
00
0-
1,
0G
1I
1L
1O
10
0.
1G
1D
1K
0L
1.
1+
1H
0G
1/
0.
#125000
0!
0$
0#
0=
0<
0:
0[
0R
0X
0$!
02!
1@!
1D!
0Z
0]
1^
0c
1d
1i
1k
1m
1p
0z
1~
0!!
0&!
0(!
0)!
1+!
1,!
1.!
0/!
01!
0C!
0h
14!
17!
18!
19!
1B!
1C!
1<!
1:!
1*!
0e
0_
0t
0E!
03!
0%!
0P
0Q
0a
0g
1-!
1>!
0C
0B
1L
0N
0*
0)
1G
0E
0J
1N
1.
0,
0I
1E
1M
00
1,
1F
1-
#130000
1!
1$
0%
0>
1=
1:
1[
1X
0V
1j
1q
1u
1y
0"!
0*!
1Z
0^
1`
0b
1c
0d
1f
0k
0m
0w
0{
1$!
1(!
1)!
0,!
12!
0?!
0@!
0D!
0'!
06!
08!
0B!
0F!
1;!
1=!
0C!
13!
1*!
1%!
1e
0-!
1|
1E!
1s
1P
1Q
1g
1'!
1-!
04!
0>!
0<!
0=!
1C
1B
0O
0K
1*
1)
14!
1h
0D
0H
0N
0/
0+
1t
0E
0M
0L
1K
0,
0F
0G
1H
1L
1/
0.
0-
1G
1J
1.
1I
10
#135000
0$
1%
1#
1&
1'
0"
1@
1?
1>
0=
1<
0;
0Y
1R
0X
1V
1T
1U
1a
1r
1<!
1_
0%!
1>!
1W
0q
0u
03!
18!
0$!
02!
1@!
0i
1k
1m
1w
1{
1!!
0(!
0+!
1,!
1/!
10!
0Z
1]
1^
1b
1d
0}
04!
05!
0E!
07!
08!
0-!
0|
1n
1l
0j
0;!
0<!
1=!
0'!
0s
0>!
1s
1<!
0L
1M
0G
1F
0K
0.
1-
0H
0M
0/
0F
0-
#140000
0&
0'
0(
0A
0@
0?
0T
0U
0S
0r
0w
0x
1z
0!!
1"!
1#!
1+!
0,!
0W
1i
0k
0p
0y
1|
1$!
0*!
1-!
0.!
00!
11!
1?!
0@!
1D!
13!
0l
1j
0-!
0$!
1%!
0|
1y
0s
1|
0%!
#145000
1&
1'
1(
1$
0%
0#
0!
1A
1@
1?
0>
1=
0<
0:
0[
0R
1X
0V
1T
1U
1S
1s
1r
0|
0y
03!
1$!
0?!
1@!
0D!
1E!
1k
0m
1o
1p
1w
1x
0"!
0)!
0/!
10!
01!
0A!
0h
1}
14!
15!
09!
1B!
0:!
17!
18!
1'!
12!
1q
0n
1l
1F!
0B!
1C!
04!
1|
0}
0s
0P
0Q
0t
0'!
1}
0C!
1s
13!
1;!
0<!
0C
0B
1L
0*
0)
1<!
14!
1t
1'!
1G
0L
1N
1O
1K
1.
0G
1E
1D
1H
0N
0K
0J
1/
0.
1,
1+
0E
0H
0I
1K
1J
1L
00
0/
0,
1H
1I
1G
10
1/
1.
#150000
0&
0(
1%
1"
0A
0?
1>
1;
1Y
1V
0T
0S
0r
0w
0x
0{
1(!
1)!
0_
0e
0|
0$!
1%!
1.!
11!
0@!
0i
0k
1m
0~
1!!
1"!
0#!
1*!
03!
07!
19!
1?!
1B!
1Z
0]
0`
0b
0j
0l
0o
16!
1A!
17!
0q
1C!
1:!
0;!
1-!
1$!
0%!
0g
0*!
1y
0s
1|
0-!
1%!
0=!
1>!
1N
1E
1,
1M
1F
1-
#155000
1&
1(
0%
0"
1A
1?
0>
0;
0Y
0V
1T
1S
1r
1w
1x
1{
0(!
0)!
1_
1e
0.!
01!
1@!
1i
1k
0m
1q
0y
1~
0!!
0"!
1#!
02!
13!
0?!
0Z
1]
1`
1b
1n
1o
04!
06!
0A!
09!
0t
14!
0%!
0n
1l
1j
0B!
12!
03!
1g
04!
13!
0C!
1s
0:!
1;!
0L
1=!
1t
14!
0G
1L
0J
0.
0>!
1G
0I
0N
0L
00
1.
0E
0G
1L
1J
0.
0,
1G
1I
0M
10
1.
0F
0-
#160000
0&
1"
1#
1!
0?
1<
1;
1:
1[
1Y
1R
0T
0_
0e
1y
0|
0$!
1%!
0@!
0i
0z
0~
1!!
1,!
1.!
1/!
00!
11!
1Z
0\
0b
0c
0l
0o
0p
1A!
1h
0t
0'!
04!
16!
08!
19!
1:!
0<!
0=!
0q
0s
1t
02!
1'!
0%!
1|
0g
0a
1P
1Q
0h
0'!
03!
1<!
1C
1B
0L
0K
0J
1*
1)
1>!
0t
0G
0H
0I
1K
1J
00
0/
0.
1H
1I
0K
10
1/
0H
0J
1M
0/
0I
1F
00
1-
#165000
0"
0!
1%
0$
1>
0=
0;
0:
0[
0Y
0X
1V
0y
1~
0#!
1*!
1i
0k
1m
1$!
1)!
0+!
1?!
1@!
1D!
0Z
1\
1b
1c
0j
1l
0E!
1t
1'!
05!
18!
1B!
0;!
0<!
1=!
08!
1s
1g
1a
0t
1C!
0*!
1n
0l
1j
1-!
1%!
0|
0P
0Q
0}
0s
0-!
1t
1;!
1<!
0C
0B
1K
1J
0*
0)
0>!
0=!
0t
0'!
1H
1I
1N
0J
10
1/
1>!
1E
0I
1J
00
1,
1I
0K
0J
0M
10
0H
0I
0F
1M
00
0/
0-
1F
1-
#170000
0%
0'
0@
0>
0V
0U
1_
0a
1e
0g
0r
0w
0x
1+!
0.!
0<!
1k
0m
1u
1y
1"!
1#!
07!
0;!
0$!
1|
0n
1l
0>!
0y
1s
1g
1a
1t
0|
1}
0%!
1<!
1=!
1'!
0}
0M
0'!
0F
1J
0-
1I
1K
10
1H
0K
1/
0H
0/
#175000
0#
0<
0R
0]
0i
0k
1o
1v
1w
1x
0!!
0"!
0#!
0)!
1.!
0/!
01!
06!
0A!
0F!
0B!
09!
1$!
1y
0l
0j
0_
0a
0s
1|
1%!
0:!
0C!
0O
0<!
0=!
1}
0t
0D
0+
1'!
0N
0E
0J
0,
0I
1K
00
1H
1/
#180000
1#
1%
1$
1&
1?
1>
1=
1<
1R
1X
1V
1T
1_
0|
0%!
1-!
1>!
1W
1q
0u
1*!
17!
1B!
12!
15!
0@!
0D!
0\
0^
0`
0b
0c
0d
1i
1k
1m
1p
0v
1z
0~
1!!
1"!
1&!
1(!
1)!
0+!
0,!
1/!
10!
11!
16!
1A!
1F!
1%!
1n
1l
1j
0e
0_
18!
19!
13!
1C!
0-!
1E!
0}
1a
14!
1:!
1<!
0a
0g
1s
0'!
1O
1M
1t
1D
1F
1N
1-
1+
1E
0K
1L
1,
0H
1G
1J
0/
1.
1I
10
#185000
0#
0$
0&
1"
1!
0(
0A
0?
0=
0<
1;
1:
1[
1Y
0R
0X
0T
0S
1r
0s
0W
0y
1|
0*!
1-!
0$!
02!
1D!
0w
0x
0z
0{
1~
0!!
0&!
0(!
0)!
1+!
0.!
0/!
00!
01!
1Z
1\
1^
1b
1d
0f
0j
0l
0n
0o
0t
1}
1'!
04!
05!
06!
07!
08!
09!
0B!
0F!
0C!
1=!
0:!
19!
0q
1*!
1y
0E!
0%!
14!
0-!
0|
0Z
1s
1P
1Q
04!
0'!
1|
1-!
0r
1:!
0<!
0=!
0>!
1C
1B
0O
0L
1K
0J
1*
1)
1<!
1=!
0s
14!
0D
0G
1H
0I
1L
0N
00
1/
0.
0+
1G
0E
0M
0K
0L
1.
0,
0F
0H
0G
1L
0/
0.
0-
1G
1.
#190000
1#
1&
1'
1@
1?
1<
1R
1T
1U
1a
1g
1W
1_
1e
0?!
1@!
0D!
1Z
0\
1]
1c
0d
1f
0i
0p
1x
1{
0"!
1#!
1)!
0+!
1,!
1.!
1/!
10!
11!
16!
1C!
18!
09!
03!
0-!
0|
1E!
0C!
0a
1h
1t
0h
1F!
04!
0:!
0=!
1N
1>!
0<!
1=!
0t
1E
0N
1,
0>!
0E
0L
1O
1J
0,
0G
1D
1I
0J
1M
10
0.
1+
0I
1F
0M
00
1-
0F
0-
#195000
0'
1$
0@
1=
1X
0U
0W
1a
0e
1"!
00!
1<!
0=!
1\
0^
0f
1i
1w
1z
1$!
1&!
0,!
12!
15!
1?!
0@!
1C!
08!
13!
0_
1>!
0g
1h
1t
0a
0<!
0h
1M
1N
0t
1F
1E
1J
1-
1,
1I
10
0J
0I
00
#200000
0$
0#
0!
0=
0<
0:
0[
0R
0X
0$!
02!
1@!
1D!
0Z
0]
1^
0c
1d
0i
0k
0m
0w
0x
0z
0{
0#!
0&!
0)!
1+!
0.!
0C!
1t
1'!
14!
17!
18!
19!
1B!
1C!
1<!
1:!
1-!
1|
1e
1_
0t
0E!
0P
0Q
1a
1g
0C
0B
1L
1K
1J
0N
0*
0)
1G
1H
1I
0E
0J
1N
10
1/
1.
0,
0I
1E
00
1,
#205000
0&
1(
1A
0?
0T
1S
1w
1x
1{
1,!
0_
0e
1i
1k
1m
1p
1.!
0/!
01!
03!
0g
0a
0y
0|
#210000
1#
1'
0"
0%
1@
0>
1<
0;
0Y
1R
0V
1U
1a
1g
1r
1q
1y
0*!
0m
0~
1!!
0"!
1#!
1)!
0+!
1/!
11!
1]
1`
1c
1f
1j
1l
1n
0p
0}
04!
05!
07!
08!
0'!
0q
1$!
0n
0-!
1|
1s
1t
1}
1%!
1=!
0L
0>!
1'!
0G
0K
0.
0H
1J
0/
1I
1K
0M
10
1H
0F
1/
0-
#215000
0#
1%
0(
1$
0A
1>
1=
0<
0R
1X
1V
0S
0r
0y
17!
0$!
12!
15!
0@!
0D!
1E!
0i
0k
1m
1p
0w
0x
1z
0{
1"!
0#!
1(!
1+!
0,!
0/!
10!
06!
0A!
0F!
1$!
1y
1n
0l
0j
1F!
0B!
07!
18!
0%!
0:!
0|
0s
0t
0}
0<!
1:!
0C!
1r
1|
1%!
0O
1}
1s
1<!
0=!
1>!
0'!
0D
1O
0+
1t
1'!
1D
0N
0J
1+
0E
0I
0K
1M
00
0,
0H
1F
1K
1J
0/
1-
1H
1I
10
1/
#220000
1#
0$
0'
1"
0@
0=
1<
1;
1Y
1R
0X
0U
1_
0a
1e
0g
0r
0$!
02!
1D!
1i
1{
1~
0!!
1#!
0(!
0.!
1/!
00!
1Z
0\
0`
0d
0n
0p
14!
16!
1A!
1C!
1B!
17!
0E!
13!
0%!
0s
1g
1a
1N
1L
1E
1G
1.
1,
#225000
0#
1$
1(
1&
1!
1A
1?
1=
0<
1:
1[
0R
1X
1T
1S
1W
0e
0|
1*!
1$!
12!
0D!
1\
0]
0b
1d
0i
1x
0z
0{
0#!
1(!
1.!
01!
1h
0t
0'!
04!
06!
07!
08!
09!
0B!
0F!
0C!
1=!
0:!
17!
18!
19!
1t
1|
1e
1E!
1-!
0g
1P
1Q
0h
14!
1g
1:!
0=!
0>!
1C
1B
0O
0L
0K
0J
1*
1)
1>!
1h
0t
0D
0G
0H
0I
1J
0N
00
0/
0.
0+
1t
1I
0E
0M
1L
10
0,
0F
1G
0J
1M
1.
0-
0I
1F
1J
00
1-
1I
10
